{
  "modelJson": {
    "global": {
      "tabSetTabLocation": "bottom"
    },
    "layout": {
      "type": "row",
      "id": "#1",
      "children": [{
        "type": "tabset",
        "id": "#2",
        "children": [{
          "type": "tab",
          "id": "#4",
          "name": "Document",
          "component": "sub",
          "config": {
            "model": {
              "global": {},
              "layout": {
                "type": "row",
                "id": "#1",
                "children": [{
                  "type": "tabset",
                  "id": "#3",
                  "weight": 41.603053435114504,
                  "children": [{
                    "type": "tab",
                    "id": "#4",
                    "name": "Document widget #4",
                    "component": "documentView",
                    "config": {
                      "layoutID": "#4"
                    }
                  }]
                }, {
                  "type": "row",
                  "id": "#10",
                  "weight": 58.396946564885496,
                  "children": [{
                    "type": "tabset",
                    "id": "#7",
                    "weight": 50,
                    "children": [{
                      "type": "tab",
                      "id": "#5",
                      "name": "PBS widget #5",
                      "component": "PBS",
                      "config": {
                        "layoutID": "#4"
                      }
                    }]
                  }, {
                    "type": "tabset",
                    "id": "#9",
                    "weight": 50,
                    "children": [{
                      "type": "tab",
                      "id": "#6",
                      "name": "Connection widget #6",
                      "component": "connectionView",
                      "config": {
                        "layoutID": "#4"
                      }
                    }],
                    "active": true
                  }]
                }]
              },
              "borders": []
            }
          }
        }, {
          "type": "tab",
          "id": "#6",
          "name": "Data",
          "component": "sub",
          "config": {
            "model": {
              "global": {},
              "layout": {
                "type": "row",
                "id": "#1",
                "children": [{
                  "type": "tabset",
                  "id": "#3",
                  "weight": 50,
                  "children": [{
                    "type": "tab",
                    "id": "#4",
                    "name": "Data widget #4",
                    "component": "dataView",
                    "config": {
                      "layoutID": "#6"
                    }
                  }],
                  "active": true
                }, {
                  "type": "tabset",
                  "id": "#6",
                  "weight": 50,
                  "children": [{
                    "type": "tab",
                    "id": "#5",
                    "name": "Data widget #5",
                    "component": "dataView",
                    "config": {
                      "layoutID": "#6"
                    }
                  }]
                }]
              },
              "borders": []
            }
          }
        }, {
          "type": "tab",
          "id": "#3",
          "name": "Simulation",
          "component": "sub",
          "config": {
            "model": {
              "global": {},
              "layout": {
                "type": "row",
                "id": "#1",
                "children": [{
                  "type": "tabset",
                  "id": "#6",
                  "weight": 23.063876777756516,
                  "children": [{
                    "type": "tab",
                    "id": "#5",
                    "name": "Controller widget #5",
                    "component": "controller",
                    "config": {
                      "layoutID": "#3"
                    }
                  }]
                }, {
                  "type": "row",
                  "id": "#10",
                  "weight": 55.49985892863469,
                  "children": [{
                    "type": "tabset",
                    "id": "#3",
                    "weight": 50,
                    "children": [{
                      "type": "tab",
                      "id": "#4",
                      "name": "Chart widget #4",
                      "component": "grid",
                      "config": {
                        "layoutID": "#3"
                      }
                    }]
                  }, {
                    "type": "tabset",
                    "id": "#9",
                    "weight": 50,
                    "children": [{
                      "type": "tab",
                      "id": "#8",
                      "name": "Chart widget #8",
                      "component": "grid",
                      "config": {
                        "layoutID": "#3"
                      }
                    }]
                  }]
                }, {
                  "type": "tabset",
                  "id": "#18",
                  "weight": 54.76959762694213,
                  "children": [{
                    "type": "tab",
                    "id": "#13",
                    "name": "3D widget #13",
                    "component": "3Dview",
                    "config": {
                      "layoutID": "#3"
                    }
                  }]
                }]
              },
              "borders": []
            }
          }
        }],
        "active": true
      }]
    },
    "borders": []
  },
  "plotJson": {
    "#3@#4": {
      "traceConfig": {
        "w": {
          "name": "w",
          "plotType": "scatter",
          "dataSource": "Variables",
          "xAxisConfig": true,
          "systemNameX": "geo",
          "recorderRefX": "All",
          "xData": "outwards.grid",
          "xDataIndex": "All",
          "yAxisConfig": true,
          "systemNameY": "meca",
          "recorderRefY": "All",
          "yData": "outwards.W",
          "yDataIndex": "All",
          "zAxisConfig": true,
          "systemNameZ": "",
          "recorderRefZ": "All",
          "zData": "inwards.maintest",
          "zDataIndex": "All"
        }
      },
      "plotLayout": {
        "title": {
          "text": "New chart"
        },
        "xaxis": {
          "title": {
            "text": "outwards.grid"
          },
          "exponentformat": "power",
          "autorange": true,
          "type": "linear",
          "range": [-0.31690140845070425, 5.316901408450704]
        },
        "yaxis": {
          "title": {
            "text": "outwards.W"
          },
          "exponentformat": "power",
          "autorange": true,
          "type": "linear",
          "range": [-0.10856127897096969, 0.008497326480027184]
        },
        "zaxis": {
          "title": {
            "text": "inwards.maintest"
          },
          "exponentformat": "power",
          "autorange": true,
          "type": "normal"
        },
        "showlegend": true,
        "legend": {
          "orientation": "h"
        },
        "autosize": true
      },
      "advancedTraceDataConfig": {
        "w": {
          "type": "scatter",
          "mode": "lines+markers"
        }
      }
    },
    "#3@#8": {
      "traceConfig": {
        "Q": {
          "name": "Q",
          "plotType": "scatter",
          "dataSource": "Variables",
          "xAxisConfig": true,
          "systemNameX": "geo",
          "recorderRefX": "All",
          "xData": "outwards.grid",
          "xDataIndex": "All",
          "yAxisConfig": true,
          "systemNameY": "meca",
          "recorderRefY": "All",
          "yData": "outwards.Q",
          "yDataIndex": "All",
          "zAxisConfig": true,
          "systemNameZ": "",
          "recorderRefZ": "All",
          "zData": "inwards.maintest",
          "zDataIndex": "All"
        }
      },
      "plotLayout": {
        "title": {
          "text": "New chart"
        },
        "xaxis": {
          "title": {
            "text": "outwards.grid"
          },
          "exponentformat": "power",
          "autorange": true,
          "type": "linear",
          "range": [-0.31690140845070425, 5.316901408450704]
        },
        "yaxis": {
          "title": {
            "text": "outwards.Q"
          },
          "exponentformat": "power",
          "autorange": true,
          "type": "linear",
          "range": [-0.5849189570119803, 0.5849189570119803]
        },
        "zaxis": {
          "title": {
            "text": "inwards.maintest"
          },
          "exponentformat": "power",
          "autorange": true,
          "type": "normal"
        },
        "showlegend": true,
        "legend": {
          "orientation": "h"
        },
        "autosize": true
      },
      "advancedTraceDataConfig": {
        "Q": {
          "type": "scatter",
          "mode": "lines+markers"
        }
      }
    },
    "#4@#4": {
      "traceConfig": {
        "documentSource": "\n<h1 align=\"center\">ChartViewer tutorial</h1> \n\n## I.Simple beam\n\n<img src=\"https://upload.wikimedia.org/wikipedia/commons/6/6f/Simple_beam_with_center_load.svg\"  />",
        "widgetName": "docs#4@#4"
      }
    },
    "#6@#4": {
      "traceConfig": {
        "systemName": "geo",
        "portName": "inwards"
      }
    },
    "#6@#5": {
      "traceConfig": {
        "systemName": "meca",
        "portName": "inwards"
      }
    }
  },
  "selectedVariable": {
    "geo.inwards.length": 6,
    "meca.inwards.position": 0.464
  }
}